Texto;Tipo;Texto Id;Prob 0;Prob 1
"Para quem utilizou o Jasper, conseguiu integrar normalmente utilizando o Hibernte? Nos testes que fizemos com o NetBeans na versão 11.3, ao Utilizar o Data Adapter Wizard, a conexão com Hibernate, o Programa solicita a localização do arquivo ""hibernate.properties"". Alguem chegou a gerar esse arquivo, junto do hibernate.cfg.xml? Para não seguirmos este caminho, utilizamos a conexão via JDBC mesmo, e funcionou normal...";P;15;0.00021193535686475485;0.9997880646431294
Sim, passamos pelo mesmo empecilho. Uma alternativa que encontramos foi enviar uma coleção de objetos, buscada com o Hibernate na aplicação e ela sim foi enviada ao Jasper para gerar o relatório. Assim, o ireport não ficou responsável pela conexão com o banco, e sim a aplicação em si.;R;36;0.7850513780116171;0.21494862198838735
Perfeito! Fizemos do mesmo modo.;R;37;0.9996522178599107;0.00034778214008977673
Pessoal,Qual estratégia de acesso concorrente pretendem utilizar? Nosso grupo pensou em utilizar Controle de transações do hibernate com Lock otimista.;P;21;0.99570933118079;0.004290668819205836
Boa noite, o que eu posso usar para a parte do uso simultâneo da aplicação? Eu não faço a mínima ideia ainda.;P;23;0.010835532418656375;0.9891644675813387
Nosso grupo estava pensando em utilizar o controle de transações do hibernate juntamente da técnica de Lock Otimista para gerir as informações e manter a integridade dos dados.;R;38;0.4991549017560042;0.5008450982439956
